{ "height":15,
 "layers":[
        {
         "data":[18, 0, 0, 0, 0, 0, 0, 0, 0, 0, 0, 0, 0, 0, 0, 0, 0, 0, 0, 0, 0, 0, 0, 0, 0, 0, 0, 0, 0, 15, 18, 0, 0, 0, 0, 0, 0, 0, 0, 0, 0, 0, 0, 0, 0, 0, 0, 0, 0, 0, 0, 0, 0, 0, 0, 0, 0, 0, 15, 15, 18, 0, 0, 0, 0, 0, 0, 0, 0, 0, 0, 1, 1, 0, 0, 0, 0, 0, 0, 0, 0, 0, 0, 0, 0, 0, 0, 0, 15, 15, 18, 0, 0, 0, 0, 0, 0, 0, 0, 0, 0, 0, 0, 0, 0, 0, 12, 0, 0, 0, 0, 0, 0, 0, 0, 0, 0, 0, 31, 19, 18, 0, 3, 1, 36, 1, 1, 1, 1, 0, 0, 0, 0, 0, 0, 0, 18, 0, 0, 0, 0, 0, 0, 0, 0, 17, 17, 17, 17, 18, 18, 0, 0, 0, 36, 0, 0, 0, 0, 0, 0, 0, 0, 0, 0, 0, 11, 0, 0, 0, 0, 0, 0, 0, 0, 0, 0, 0, 0, 18, 18, 16, 0, 0, 36, 0, 0, 3, 16, 0, 0, 1, 0, 0, 0, 0, 9, 0, 0, 0, 0, 0, 0, 0, 0, 0, 0, 0, 0, 18, 18, 0, 0, 0, 36, 0, 0, 0, 0, 0, 1, 35, 0, 0, 0, 14, 18, 16, 0, 0, 0, 0, 0, 0, 0, 0, 0, 0, 0, 18, 18, 0, 0, 14, 16, 0, 0, 0, 0, 0, 35, 35, 0, 0, 0, 0, 0, 0, 0, 0, 0, 0, 0, 0, 0, 0, 0, 0, 0, 18, 18, 0, 0, 0, 0, 0, 0, 0, 0, 0, 35, 35, 0, 0, 0, 0, 0, 0, 0, 0, 0, 0, 0, 0, 0, 0, 0, 0, 0, 18, 18, 16, 0, 0, 5, 0, 0, 0, 0, 0, 0, 35, 0, 1, 1, 1, 1, 1, 1, 1, 1, 1, 1, 0, 0, 0, 0, 0, 0, 18, 18, 0, 0, 0, 0, 0, 0, 0, 0, 0, 0, 0, 0, 0, 0, 0, 0, 0, 0, 0, 0, 0, 0, 0, 0, 0, 0, 0, 0, 18, 18, 0, 14, 0, 0, 0, 0, 0, 0, 0, 0, 0, 0, 0, 0, 0, 0, 0, 0, 0, 0, 0, 0, 0, 0, 0, 0, 0, 0, 18, 18, 0, 0, 0, 0, 0, 0, 0, 0, 0, 0, 0, 0, 0, 0, 0, 0, 0, 0, 0, 0, 0, 0, 0, 0, 0, 0, 0, 0, 18, 18, 17, 17, 17, 1, 17, 14, 14, 17, 17, 1, 17, 17, 14, 14, 1, 1, 17, 1, 17, 17, 14, 1, 14, 17, 1, 1, 1, 1, 18],
         "height":15,
         "name":"Welt",
         "opacity":1,
         "type":"tilelayer",
         "visible":true,
         "width":30,
         "x":0,
         "y":0
        }, 
        {
         "draworder":"topdown",
         "height":0,
         "name":"Objekte",
         "objects":[
                {
                 "gid":18,
                 "height":0,
                 "id":1,
                 "name":"Elevator",
                 "properties":
                    {
                     "maxY":"13",
                     "minY":"5",
                     "velocityY":"60"
                    },
                 "rotation":0,
                 "type":"moving-platform",
                 "visible":true,
                 "width":0,
                 "x":746,
                 "y":314
                }, 
                {
                 "gid":25,
                 "height":0,
                 "id":8,
                 "name":"Key",
                 "properties":
                    {

                    },
                 "rotation":0,
                 "type":"key",
                 "visible":true,
                 "width":0,
                 "x":476,
                 "y":212
                }, 
                {
                 "gid":25,
                 "height":0,
                 "id":9,
                 "name":"Key",
                 "properties":
                    {

                    },
                 "rotation":0,
                 "type":"key",
                 "visible":true,
                 "width":0,
                 "x":420,
                 "y":298
                }, 
                {
                 "gid":27,
                 "height":0,
                 "id":15,
                 "name":"Fireball",
                 "properties":
                    {

                    },
                 "rotation":0,
                 "type":"enemy",
                 "visible":true,
                 "width":0,
                 "x":191,
                 "y":108
                }, 
                {
                 "gid":27,
                 "height":0,
                 "id":16,
                 "name":"Fireball",
                 "properties":
                    {

                    },
                 "rotation":0,
                 "type":"enemy",
                 "visible":true,
                 "width":0,
                 "x":515,
                 "y":308
                }, 
                {
                 "gid":27,
                 "height":0,
                 "id":18,
                 "name":"Fire",
                 "properties":
                    {

                    },
                 "rotation":0,
                 "type":"fire",
                 "visible":true,
                 "width":0,
                 "x":334,
                 "y":423
                }, 
                {
                 "gid":20,
                 "height":0,
                 "id":19,
                 "name":"Startpunkt",
                 "properties":
                    {

                    },
                 "rotation":0,
                 "type":"startpunkt",
                 "visible":true,
                 "width":0,
                 "x":366,
                 "y":49
                }],
         "opacity":1,
         "type":"objectgroup",
         "visible":true,
         "width":0,
         "x":0,
         "y":0
        }],
 "nextobjectid":20,
 "orientation":"orthogonal",
 "properties":
    {

    },
 "renderorder":"left-down",
 "tileheight":32,
 "tilesets":[
        {
         "firstgid":1,
         "image":"..\/tilesets\/Tiles-2-jungle-theme.png",
         "imageheight":192,
         "imagewidth":192,
         "margin":0,
         "name":"Tiles",
         "properties":
            {

            },
         "spacing":0,
         "tileheight":32,
         "tilewidth":32,
         "transparentcolor":"#5a5268"
        }],
 "tilewidth":32,
 "version":1,
 "width":30
}